31;59;"cus_5VcgIpfNkHpT3G"
32;61;"cus_5VxOzm6VxFWhws"
33;65;"cus_5WOYuDACLc12fe"
34;75;"cus_5WiwehGzPTq9ve"
35;166;"cus_5a4o5j5TFbQC9F"
36;184;"cus_5bK3tzYLqorcEb"
37;201;"cus_5c1ZlXoTlHV5hP"
38;205;"cus_5c283rraJlpdjS"
39;208;"cus_5cM8tj07AFHr8Z"
40;209;"cus_5cf9v5OfVXWPmd"
41;96;"cus_5dUTB7bjWKX8om"
42;66;"cus_5fKdzordhjiPOb"
43;247;"cus_5lPCP3rCa7PhST"
44;253;"cus_5on4PLcwfLoOJg"
45;254;"cus_5qu91Cbq50O7Ui"
46;289;"cus_5sNjJw9Drt1jAT"
47;318;"cus_5u1HWCBr5N6vMS"
48;313;"cus_5uhLnKWxtIEGOy"
49;352;"cus_5vsmCq97Ue3zDw"
50;356;"cus_5w6SiHeO5u3UA1"
51;357;"cus_5w7fToSRUt1M9L"
52;286;"cus_5wcSLACe0mCGdX"
53;375;"cus_5wvHR9Bj36zF4l"
54;378;"cus_5wyPP2emBJexcj"
55;377;"cus_5wyXrqT2z6uiMX"
56;381;"cus_5wzPequqsaIKZ7"
57;393;"cus_5xMbUBZxAwTqFr"
58;405;"cus_5xkGeU2TcNQHxv"
59;419;"cus_5yLNhQbu2Zzi62"
60;413;"cus_5yMp7E3bul54vJ"
61;432;"cus_5yikAooQRQdpXk"
62;421;"cus_5zGr6tRgri1j80"
63;453;"cus_5zKyMQyRugT0gb"
64;684;"cus_6BfVbmxv67ztHb"
65;288;"cus_6CcNraQpCOE9xC"
66;664;"cus_6D3LpcsMtoKSqe"
67;705;"cus_6DReg5DuWDKnNT"
68;672;"cus_6Eduq6SjZywUiv"
69;722;"cus_6EnKWgnMAzShnF"
70;385;"cus_6HzB9brzSxNL1c"
71;778;"cus_6ILhCPKSl3H0ht"
72;798;"cus_6K6ws2rm3YbhLC"
73;806;"cus_6Kc2eIxgV4nlzR"
74;822;"cus_6LexAP61EPXmQd"
75;854;"cus_6N8ruY7Eozx5RP"
76;838;"cus_6Nr0FVj4Rs5GdY"
77;879;"cus_6OZr1JQxeqmwRL"
78;878;"cus_6OcCLsJckNSYZ5"
79;836;"cus_6PsdGekV7uzHAn"
80;746;"cus_6QB43lGAdxmdXC"
81;911;"cus_6QRyNvm9qmx4Yy"
82;321;"cus_6RvUT5giNLrp9B"
83;948;"cus_6SQVyo77DckZrV"
84;983;"cus_6V6JLCFSwoN4G7"
85;1055;"cus_6ZB5iPefaxbuqd"
86;681;"cus_6ZDmJLfmkHdQld"
87;1047;"cus_6b0Y1GfdJdSQEv"
88;1063;"cus_6b2LWsoG9EoKSu"
89;942;"cus_6bS8zjVJJpP9i1"
90;813;"cus_6bjM4lOYdeQrEd"
91;979;"cus_6bsrFXdD6cRZo7"
92;1095;"cus_6cDrzEXNM1n6MP"
93;1102;"cus_6cwCNUs3MhqUQj"
94;739;"cus_6e0h584M1tnki5"
95;1130;"cus_6eKLbrCMb2owJV"
96;509;"cus_6eTFUTRwChTIDN"
97;1090;"cus_6gcZn8Fri4S3az"
98;1167;"cus_6h2qdGMmWv15vL"
99;1235;"cus_6lT8mOtDH26EuH"
100;1071;"cus_6larH1eq46Ek0G"
101;1289;"cus_6mJUqpVCwbc7vn"
102;1205;"cus_6npvprJVeCdIYb"
103;1313;"cus_6oTTQgSDz0J3bt"
104;459;"cus_6oVlMqIdQ9ztvx"
105;743;"cus_6pDFOBYRZtQWrh"
106;1308;"cus_6sDXASQQOrZqDb"
107;1358;"cus_6sbvGqjtjgWQXM"
108;647;"cus_6u8eccuJRa7XBp"
109;1372;"cus_6uZ7DDQki5biQ2"
110;1084;"cus_6vx6elDnDS3mDk"
111;505;"cus_6xWYr2busgEpRV"
112;1475;"cus_73rrxnpkPvuiSC"
113;1237;"cus_74ztIhmTZERu3m"
114;1436;"cus_750DX3DgHTQHND"
115;1529;"cus_75mhTFDY8ZQ2uq"
116;641;"cus_76Aif5ts96rlcR"
117;1536;"cus_76RDbrjc8mdhE2"
118;422;"cus_77etsg7KoyeoJ0"
119;1510;"cus_77yp2Mr1Ln1IRX"
120;1586;"cus_78irQBSHJOGqPL"
121;1166;"cus_7AYBBgCBW9e2DS"
122;1609;"cus_7Azg4nZoK2q0Jn"
123;1440;"cus_7CmmzMsKkWtr7M"
124;1131;"cus_7CrRBM149nRENQ"
125;1679;"cus_7DcMdHjeZZZqr4"
126;1682;"cus_7DeXRlZw9qJtmu"
127;1659;"cus_7DuqQ00yJTkegS"
128;1703;"cus_7EGnSXWWhxmS7Y"
129;1584;"cus_7ELoy1AOm2rEKf"
130;1729;"cus_7FUn9kcUpnT7W2"
131;1737;"cus_7FZetYfN2aKHd5"
132;1036;"cus_7FpeGUUddW7MMk"
133;1590;"cus_7H5tRHj4hKB4cz"
134;1818;"cus_7I7nOU8wW1o17M"
135;1841;"cus_7JDeBv1M0ZnhwX"
136;1839;"cus_7Jc8NmyOWKHCiE"
137;1881;"cus_7KSPOs3e64ANJ8"
138;1551;"cus_7Kh6gatcthkX0T"
139;1861;"cus_7KkiZNW6qjfw0w"
140;1880;"cus_7KnSv81AubBVZX"
141;1854;"cus_7L3Nok2qenLzyF"
142;820;"cus_7LSN4OS0mYTgZx"
143;1444;"cus_7LYEFGf9nffcVh"
144;1852;"cus_7LtEVgKlsnmx0m"
145;1462;"cus_7NKDTYZwEoZaEx"
146;1338;"cus_7NOqAkHd3etaR0"
147;1907;"cus_7PCvBTBX01iVJS"
148;1938;"cus_7PFaV156Vw2k17"
149;1962;"cus_7PWESUTiW5iCJV"
;;""
